{
  "type": "array",
  "items": {
    "properties": {
      "id": {
        "type": "string",
        "faker": "random.uuid"
      },
      "videoTitle": {
        "type": "string"
      },
      "caption": {
        "type": "string"
      },
      "approved": {
        "type": "boolean"
      },
      "submitted": {
        "type": "boolean"
      },
      "featured": {
        "type": "boolean"
      },
      "videoType": {
        "type": "string",
        "enum": [
          "sale",
          ""
        ]
      },
      "converted": {
        "type": "boolean"
      },
      "expired": {
        "type": "boolean"
      },
      "airedAt": {
        "type": "string",
        "format": "date-time",
        "faker": "date.recent"
      },
      "ranking": {
        "type": "number",
        "faker": {
          "random.number": [
            20
          ]
        }
      },
      "mediaUrl": {
        "type": "string",
        "enum": [
          "https://d9w0wfiu0u1pg.cloudfront.net/bOFe2AHEOs/videos/DvyCq4rGZu/video-DvyCq4rGZu-568.m3u8"
        ]
      },
      "sourceMediaUrl": {
        "type": "string",
        "enum": [
          "https://d9w0wfiu0u1pg.cloudfront.net/bOFe2AHEOs/videos/DvyCq4rGZu/74703ca4-6cf3-478e-9195-0bf8c74bd649.mp4"
        ]
      },
      "altMediaUrl": {
        "type": "string",
        "description": "A new MPEG DASH url",
        "enum": [
          "https://d9w0wfiu0u1pg.cloudfront.net/bOFe2AHEOs/videos/DvyCq4rGZu/video-DvyCq4rGZu-568-dash.mpd"
        ]
      },
      "sharingImageUrl": {
        "type": "string",
        "description": "A url for shareable image generated on video upload",
        "enum": [
          "https://d9w0wfiu0u1pg.cloudfront.net/bOFe2AHEOs/videos/DvyCq4rGZu/user-shareimage-1528968495470.jpg"
        ]
      },
      "posterImageUrl": {
        "type": "string",
        "description": "The image that is used as the poster image",
        "enum": [
          "https://d9w0wfiu0u1pg.cloudfront.net/bOFe2AHEOs/products/tFlhXqdVBd/2c54f5b7-0fe3-46fc-b9ad-02a56d154f0b.jpg"
        ]
      },
      "previewUrl": {
        "type": "string",
        "description": "A url for a gif formatted preview of the video",
        "enum": [
          "https://d9w0wfiu0u1pg.cloudfront.net/bOFe2AHEOs/videos/DvyCq4rGZu/user-preview-1528968423559.gif"
        ]
      },
      "altPreviewUrl": {
        "type": "string",
        "description": "A url for an mp4 formatted preview video. Not gif",
        "enum": [
          "https://d9w0wfiu0u1pg.cloudfront.net/bOFe2AHEOs/videos/DvyCq4rGZu/fast-1528968423708.mp4"
        ]
      },
      "indexedAt": {
        "type": "string",
        "format": "date-time",
        "faker": "date.recent"
      },
      "updatedAt": {
        "type": "string",
        "format": "date-time",
        "faker": "date.recent"
      },
      "createdAt": {
        "type": "string",
        "format": "date-time",
        "faker": "date.recent"
      },
      "website": {
        "type": "string",
        "faker": "internet.domainName"
      },
      "socialVideoUrl": {
        "type": "string",
        "enum": [
          "https://d9w0wfiu0u1pg.cloudfront.net/bOFe2AHEOs/videos/DvyCq4rGZu/user-portrait-1528968430066.mp4"
        ]
      },
      "channels": {
        "type": "array",
        "items": {
          "type": "string"
        }
      },
      "adminTags": {
        "type": "array",
        "items": {
          "type": "string"
        },
        "enum": [
          "feature",
          "winter",
          "summer"
        ]
      },
      "yeay": {
        "type": "boolean"
      },
      "affiliateProductIds": {
        "type": "array",
        "items": {
          "type": "string"
        }
      },
      "totalLikes": {
        "type": "number",
        "faker": {
          "random.number": [
            20
          ]
        }
      },
      "creator": {
        "properties": {
          "id": {
            "type": "string",
            "faker": "random.uuid"
          },
          "email": {
            "type": "string",
            "faker": "internet.email"
          },
          "firstname": {
            "type": "string",
            "faker": "name.firstName"
          },
          "lastname": {
            "type": "string",
            "faker": "name.lastName"
          },
          "username": {
            "type": "string",
            "faker": "internet.userName"
          },
          "emailVerified": {
            "type": "boolean"
          },
          "avatarImageUrl": {
            "type": "string",
            "faker": "image.avatar"
          },
          "splashImageUrl": {
            "type": "string",
            "faker": "image.avatar"
          },
          "deviceToken": {
            "type": "string"
          },
          "updatedAt": {
            "type": "string",
            "format": "date-time",
            "faker": "date.recent"
          },
          "createdAt": {
            "type": "string",
            "format": "date-time",
            "faker": "date.recent"
          },
          "address": {
            "properties": {
              "administrativeArea": {
                "type": "string",
                "faker": "address.state"
              },
              "formattedAddressLines": {
                "type": "string",
                "description": "Read-only, pretty printed string of the address",
                "faker": "address.streetAddress"
              },
              "locality": {
                "type": "string"
              },
              "thoroughfare": {
                "type": "string"
              },
              "postalCode": {
                "type": "string",
                "faker": "address.zipCode"
              },
              "name": {
                "type": "string",
                "faker": "commerce.productName"
              },
              "suite": {
                "type": "string"
              },
              "isoCountryCode": {
                "type": "string",
                "faker": "address.countryCode"
              }
            }
          },
          "paypalEmail": {
            "type": "string",
            "faker": "internet.email"
          },
          "phoneNumber": {
            "type": "string",
            "faker": "phone.phoneNumber"
          },
          "gender": {
            "type": "string",
            "enum": [
              "male",
              "female"
            ]
          },
          "birthday": {
            "type": "string",
            "format": "date"
          },
          "taxId": {
            "type": "string",
            "faker": "random.number"
          },
          "locale": {
            "type": "string",
            "faker": "random.locale"
          },
          "roles": {
            "type": "array",
            "items": {
              "type": "string"
            },
            "enum": [
              "admin",
              "guest",
              "user"
            ]
          },
          "altAvatarImages": {
            "type": "object",
            "properties": {}
          },
          "profileBio": {
            "type": "string"
          },
          "allowsChat": {
            "type": "boolean"
          },
          "currency": {
            "type": "string",
            "faker": "finance.currencyCode"
          },
          "paymentDetails": {
            "type": "object",
            "properties": {
              "stripe": {
                "type": "object",
                "properties": {
                  "gatewayCustomerId": {
                    "type": "string",
                    "faker": "random.number"
                  },
                  "gatewayEmail": {
                    "type": "string",
                    "faker": "internet.email"
                  },
                  "gatewayPayload": {
                    "type": "object",
                    "properties": {}
                  },
                  "gatewayCommerceType": {
                    "type": "string"
                  }
                }
              }
            }
          },
          "appUserType": {
            "type": "string",
            "enum": [
              "regular",
              "influencer",
              "retailer",
              "brand"
            ]
          },
          "isVerifiedByYeay": {
            "type": "boolean"
          },
          "yeayScore": {
            "type": "integer",
            "minimum": 0,
            "description": "Only available if user is own user or when in admin context",
            "faker": {
              "random.number": [
                1000
              ]
            }
          },
          "isScoreFrozen": {
            "type": "boolean",
            "description": "Only available if user is own user or when in admin context"
          }
        }
      },
      "user": {
        "properties": {
          "id": {
            "type": "string",
            "faker": "random.uuid"
          },
          "email": {
            "type": "string",
            "faker": "internet.email"
          },
          "firstname": {
            "type": "string",
            "faker": "name.firstName"
          },
          "lastname": {
            "type": "string",
            "faker": "name.lastName"
          },
          "username": {
            "type": "string",
            "faker": "internet.userName"
          },
          "emailVerified": {
            "type": "boolean"
          },
          "avatarImageUrl": {
            "type": "string",
            "faker": "image.avatar"
          },
          "splashImageUrl": {
            "type": "string",
            "faker": "image.avatar"
          },
          "deviceToken": {
            "type": "string"
          },
          "updatedAt": {
            "type": "string",
            "format": "date-time",
            "faker": "date.recent"
          },
          "createdAt": {
            "type": "string",
            "format": "date-time",
            "faker": "date.recent"
          },
          "address": {
            "properties": {
              "administrativeArea": {
                "type": "string",
                "faker": "address.state"
              },
              "formattedAddressLines": {
                "type": "string",
                "description": "Read-only, pretty printed string of the address",
                "faker": "address.streetAddress"
              },
              "locality": {
                "type": "string"
              },
              "thoroughfare": {
                "type": "string"
              },
              "postalCode": {
                "type": "string",
                "faker": "address.zipCode"
              },
              "name": {
                "type": "string",
                "faker": "commerce.productName"
              },
              "suite": {
                "type": "string"
              },
              "isoCountryCode": {
                "type": "string",
                "faker": "address.countryCode"
              }
            }
          },
          "paypalEmail": {
            "type": "string",
            "faker": "internet.email"
          },
          "phoneNumber": {
            "type": "string",
            "faker": "phone.phoneNumber"
          },
          "gender": {
            "type": "string",
            "enum": [
              "male",
              "female"
            ]
          },
          "birthday": {
            "type": "string",
            "format": "date"
          },
          "taxId": {
            "type": "string",
            "faker": "random.number"
          },
          "locale": {
            "type": "string",
            "faker": "random.locale"
          },
          "roles": {
            "type": "array",
            "items": {
              "type": "string"
            },
            "enum": [
              "admin",
              "guest",
              "user"
            ]
          },
          "altAvatarImages": {
            "type": "object",
            "properties": {}
          },
          "profileBio": {
            "type": "string"
          },
          "allowsChat": {
            "type": "boolean"
          },
          "currency": {
            "type": "string",
            "faker": "finance.currencyCode"
          },
          "paymentDetails": {
            "type": "object",
            "properties": {
              "stripe": {
                "type": "object",
                "properties": {
                  "gatewayCustomerId": {
                    "type": "string",
                    "faker": "random.number"
                  },
                  "gatewayEmail": {
                    "type": "string",
                    "faker": "internet.email"
                  },
                  "gatewayPayload": {
                    "type": "object",
                    "properties": {}
                  },
                  "gatewayCommerceType": {
                    "type": "string"
                  }
                }
              }
            }
          },
          "appUserType": {
            "type": "string",
            "enum": [
              "regular",
              "influencer",
              "retailer",
              "brand"
            ]
          },
          "isVerifiedByYeay": {
            "type": "boolean"
          },
          "yeayScore": {
            "type": "integer",
            "minimum": 0,
            "description": "Only available if user is own user or when in admin context",
            "faker": {
              "random.number": [
                1000
              ]
            }
          },
          "isScoreFrozen": {
            "type": "boolean",
            "description": "Only available if user is own user or when in admin context"
          }
        }
      },
      "challengeId": {
        "type": "string",
        "description": "The challenge id, if the video was uploaded for a challenge.",
        "faker": "random.number"
      },
      "challenge": {
        "allOf": [
          {
            "required": [
              "id"
            ],
            "properties": {
              "id": {
                "type": "string"
              }
            }
          }
        ]
      },
      "generalFeedVisibility": {
        "type": "boolean",
        "description": "Flag controlling feed visibility: `true` makes video visible in all feeds, `false` makes\nvideo invisible in all feeds. Invisible videos will be excluded from feeds. Default is `true`.\nCan be overwritten by `feedVisibility` on per feed basis.\n\nOnly admin users are allowed to change this property.\n"
      },
      "specificFeedVisibilities": {
        "type": "object",
        "description": "Seetings object controlling feed visibility on per feed basis: `true` will make video visible\nin specified feed, `false` will make video invisble in specified feed. Unspecified feeds will\n(property not set) will be shown/hidden as specified by `defaultFeedVisibility`. Invisible\nvideos will be excluded from feeds\n\nOnly admin users are allowed to update this property.\n",
        "properties": {
          "new-videos": {
            "type": "boolean"
          },
          "trending-videos": {
            "type": "boolean"
          },
          "on-fire": {
            "type": "boolean"
          },
          "near-you": {
            "type": "boolean"
          }
        }
      },
      "isOnline": {
        "description": "Determines if a video is publically accessible.",
        "type": "boolean"
      },
      "brands": {
        "description": "List of brand tags that appear in the video",
        "type": "string",
        "faker": "company.companyName"
      }
    },
    "required": [
      "id",
      "videoTitle",
      "caption",
      "approved",
      "submitted",
      "featured",
      "videoType",
      "converted",
      "expired",
      "airedAt",
      "ranking",
      "mediaUrl",
      "sourceMediaUrl",
      "altMediaUrl",
      "sharingImageUrl",
      "posterImageUrl",
      "previewUrl",
      "altPreviewUrl",
      "indexedAt",
      "updatedAt",
      "createdAt",
      "website",
      "socialVideoUrl",
      "channels",
      "adminTags",
      "yeay",
      "affiliateProductIds",
      "totalLikes",
      "creator",
      "user",
      "challengeId",
      "challenge",
      "generalFeedVisibility",
      "specificFeedVisibilities",
      "isOnline",
      "brands"
    ]
  },
  "uniqueItems": true
}